; NOTE: Assertions have been autogenerated by utils/update_llc_test_checks.py

; RUN: llc -mtriple=riscv64 -riscv-fence-spec-enable -riscv-fence-spec-disopt -riscv-fence-spec-end-block %s -o - | FileCheck %s --check-prefix=FENCE-SPEC

; RUN: llc -mtriple=riscv64 -riscv-fence-spec-enable -riscv-fence-spec-disopt %s -o - | FileCheck %s --check-prefix=FENCE-SPEC-NO-END

; RUN: llc -mtriple=riscv64 -riscv-fence-spec-enable -riscv-fence-spec-disopt -riscv-fence-spec-nop -riscv-fence-spec-end-block %s -o - | FileCheck %s --check-prefix=FENCE-NOP

; RUN: llc -mtriple=riscv64 -riscv-fence-spec-omit-branch-fences -riscv-fence-spec-enable %s -o - | FileCheck %s --check-prefix=FENCE-OPT

; RUN: llc -mtriple=riscv64 -riscv-fence-spec-enable -riscv-fence-spec-end-block -riscv-fence-spec-disopt -riscv-fence-spec-all %s -o - | FileCheck %s --check-prefix=FENCE-SPEC-ALL

; RUN: llc -mtriple=riscv64 -riscv-fence-spec-enable -riscv-fence-spec-end-block -riscv-fence-spec-disopt -riscv-fence-i %s -o - | FileCheck %s --check-prefix=FENCE-SPEC-I

; RUN: llc -mtriple=riscv64 -riscv-fence-spec-enable -riscv-fence-spec-end-block -riscv-fence-spec-disopt -riscv-fence-spec-ser -riscv-fence-spec-all %s -o - | FileCheck %s --check-prefix=FENCE-SER-ALL

; RUN: llc -mtriple=riscv64 -riscv-fence-spec-enable -riscv-fence-spec-end-block -riscv-fence-spec-disopt -riscv-fence-spec-ser -riscv-fence-spec-after %s -o - | FileCheck %s --check-prefix=FENCE-SER-AFTER

; RUN: llc -mtriple=riscv64 -riscv-fence-spec-enable -riscv-fence-spec-disopt -riscv-fence-spec-omit-branch-fences -riscv-fence-spec-after %s -o - | FileCheck %s --check-prefix=FENCE-SPEC-AFTER

; RUN: llc -mtriple=riscv64 -riscv-fence-spec-enable -riscv-fence-spec-disopt -riscv-fence-spec-omit-branch-fences -riscv-fence-spec-after -riscv-fence-spec-after-disable-x0 %s -o - | FileCheck %s --check-prefix=FENCE-SPEC-AFTER-DIS

; RUN: llc -mtriple=riscv64 -riscv-fence-spec-enable -riscv-fence-spec-disopt -riscv-fence-spec-one-fence-per-bb %s -o - | FileCheck %s --check-prefix=ONE-FENCE

; RUN: llc -mtriple=riscv64 -riscv-fence-spec-enable -riscv-fence-spec-disopt -riscv-fence-spec-omit-branch-fences %s -o - | FileCheck %s --check-prefix=FENCE-OMIT-BR

; RUN: llc -mtriple=riscv64 -riscv-fence-spec-enable -riscv-fence-spec-disopt -riscv-fence-spec-ser -riscv-fence-spec-omit-branch-fences %s -o - | FileCheck %s --check-prefix=FENCE-OMIT-BR-SER

; RUN: llc -mtriple=riscv64 -riscv-fence-spec-enable -riscv-fence-slh -riscv-fence-spec-ser -riscv-fence-spec-omit-branch-fences %s -o - | FileCheck %s --check-prefix=FENCE-SER-SLH

; RUN: llc -mtriple=riscv64 -riscv-fence-spec-enable -riscv-fence-slh -riscv-fence-spec-omit-branch-fences %s -o - | FileCheck %s --check-prefix=FENCE-SLH

@array1_size = dso_local global i32 16, align 4
@array1 = dso_local global <{ [16 x i8], [144 x i8] }> <{ [16 x i8] c"\01\02\03\04\05\06\07\08\09\0A\0B\0C\0D\0E\0F\10", [144 x i8] zeroinitializer }>, align 1
@temp = dso_local global i8 0, align 1
@array2 = dso_local global [131072 x i8] zeroinitializer, align 1


define dso_local void @victim_function(i64 noundef %x) {
; FENCE-SPEC-LABEL: victim_function:
; FENCE-SPEC:       # %bb.0:
;
; FENCE-SPEC-NEXT:	  addi	sp, sp, -16
; FENCE-SPEC-NEXT:  	.cfi_def_cfa_offset 16
; FENCE-SPEC-NEXT:  	lui	a1, %hi(array1_size)
; FENCE-SPEC-NEXT:  	fence.spec	a1, a1
; FENCE-SPEC-NEXT:  	lwu	a1, %lo(array1_size)(a1)
; FENCE-SPEC-NEXT:  	sd	a0, 8(sp)
; FENCE-SPEC-NEXT:  	fence.spec	a1, a1
; FENCE-SPEC-NEXT:  	bgeu	a0, a1, .LBB0_2

; FENCE-SPEC-NO-END-LABEL: victim_function:
; FENCE-SPEC-NO-END:       # %bb.0:
;
; FENCE-SPEC-NO-END-NEXT:	  addi	sp, sp, -16
; FENCE-SPEC-NO-END-NEXT:  	.cfi_def_cfa_offset 16
; FENCE-SPEC-NO-END-NEXT:  	lui	a1, %hi(array1_size)
; FENCE-SPEC-NO-END-NEXT:  	fence.spec	a1, a1
; FENCE-SPEC-NO-END-NEXT:  	lwu	a1, %lo(array1_size)(a1)
; FENCE-SPEC-NO-END-NEXT:  	sd	a0, 8(sp)
; FENCE-SPEC-NO-END-NEXT:  	bgeu	a0, a1, .LBB0_2

; FENCE-NOP-LABEL: victim_function:
; FENCE-NOP:       # %bb.0:
;
; FENCE-NOP-NEXT:	  addi	sp, sp, -16
; FENCE-NOP-NEXT:  	.cfi_def_cfa_offset 16
; FENCE-NOP-NEXT:  	lui	a1, %hi(array1_size)
; FENCE-NOP-NEXT:  	nop
; FENCE-NOP-NEXT:  	lwu	a1, %lo(array1_size)(a1)
; FENCE-NOP-NEXT:  	sd	a0, 8(sp)
; FENCE-NOP-NEXT:  	nop
; FENCE-NOP-NEXT:  	bgeu	a0, a1, .LBB0_2


; FENCE-OPT-LABEL: victim_function:
; FENCE-OPT:       # %bb.0:
;
; FENCE-OPT-NEXT:	  addi	sp, sp, -16
; FENCE-OPT-NEXT:  	.cfi_def_cfa_offset 16
; FENCE-OPT-NEXT:  	lui	a1, %hi(array1_size)
; FENCE-OPT-NEXT:  	fence.spec	a1, a1
; FENCE-OPT-NEXT:  	lwu	a1, %lo(array1_size)(a1)
; FENCE-OPT-NEXT:  	sd	a0, 8(sp)
; FENCE-OPT-NEXT:  	bgeu	a0, a1, .LBB0_2

; FENCE-SER-AFTER-LABEL: victim_function:
; FENCE-SER-AFTER:       # %bb.0:
;
; FENCE-SER-AFTER-NEXT:	  addi	sp, sp, -16
; FENCE-SER-AFTER-NEXT:  	.cfi_def_cfa_offset 16
; FENCE-SER-AFTER-NEXT:  	lui	a1, %hi(array1_size)
; FENCE-SER-AFTER-NEXT:  	lwu	a1, %lo(array1_size)(a1)
; FENCE-SER-AFTER-NEXT:  	fence.ser	a1, a1
; FENCE-SER-AFTER-NEXT:  	sd	a0, 8(sp)
; FENCE-SER-AFTER-NEXT:  	fence.ser	a1, a1
; FENCE-SER-AFTER-NEXT:  	bgeu	a0, a1, .LBB0_2

; FENCE-SPEC-AFTER-LABEL: victim_function:
; FENCE-SPEC-AFTER:       # %bb.0:
;
; FENCE-SPEC-AFTER-NEXT:	  addi	sp, sp, -16
; FENCE-SPEC-AFTER-NEXT:  	.cfi_def_cfa_offset 16
; FENCE-SPEC-AFTER-NEXT:  	lui	a1, %hi(array1_size)
; FENCE-SPEC-AFTER-NEXT:  	lwu	a1, %lo(array1_size)(a1)
; FENCE-SPEC-AFTER-NEXT:  	fence.spec	zero, a1
; FENCE-SPEC-AFTER-NEXT:  	sd	a0, 8(sp)
; FENCE-SPEC-AFTER-NEXT:  	bgeu	a0, a1, .LBB0_2


; FENCE-SPEC-ALL-LABEL: victim_function:
; FENCE-SPEC-ALL:       # %bb.0:
;
; FENCE-SPEC-ALL-NEXT:	  addi	sp, sp, -16
; FENCE-SPEC-ALL-NEXT:  	.cfi_def_cfa_offset 16
; FENCE-SPEC-ALL-NEXT:  	lui	a1, %hi(array1_size)
; FENCE-SPEC-ALL-NEXT:  	fence.spec	zero, zero
; FENCE-SPEC-ALL-NEXT:  	lwu	a1, %lo(array1_size)(a1)
; FENCE-SPEC-ALL-NEXT:  	sd	a0, 8(sp)
; FENCE-SPEC-ALL-NEXT:  	fence.spec	zero, zero
; FENCE-SPEC-ALL-NEXT:  	bgeu	a0, a1, .LBB0_2

; FENCE-SPEC-I-LABEL: victim_function:
; FENCE-SPEC-I:       # %bb.0:
;
; FENCE-SPEC-I-NEXT:	  addi	sp, sp, -16
; FENCE-SPEC-I-NEXT:  	.cfi_def_cfa_offset 16
; FENCE-SPEC-I-NEXT:  	lui	a1, %hi(array1_size)
; FENCE-SPEC-I-NEXT:  	fence.i
; FENCE-SPEC-I-NEXT:  	lwu	a1, %lo(array1_size)(a1)
; FENCE-SPEC-I-NEXT:  	sd	a0, 8(sp)
; FENCE-SPEC-I-NEXT:  	fence.i
; FENCE-SPEC-I-NEXT:  	bgeu	a0, a1, .LBB0_2

; FENCE-SER-ALL-LABEL: victim_function:
; FENCE-SER-ALL:       # %bb.0:
;
; FENCE-SER-ALL-NEXT:	  addi	sp, sp, -16
; FENCE-SER-ALL-NEXT:  	.cfi_def_cfa_offset 16
; FENCE-SER-ALL-NEXT:  	lui	a1, %hi(array1_size)
; FENCE-SER-ALL-NEXT:  	fence.ser	zero, zero
; FENCE-SER-ALL-NEXT:  	lwu	a1, %lo(array1_size)(a1)
; FENCE-SER-ALL-NEXT:  	sd	a0, 8(sp)
; FENCE-SER-ALL-NEXT:  	fence.ser	zero, zero
; FENCE-SER-ALL-NEXT:  	bgeu	a0, a1, .LBB0_2

; ONE-FENCE-LABEL:victim_function:
; ONE-FENCE:        .cfi_startproc
; ONE-FENCE-NEXT: # %bb.0:
; ONE-FENCE-NEXT:   addi	sp, sp, -16
; ONE-FENCE-NEXT:   .cfi_def_cfa_offset 16
; ONE-FENCE-NEXT:   lui	a1, %hi(array1_size)
; ONE-FENCE-NEXT:   fence.spec  a1, a1
; ONE-FENCE-NEXT:   lwu	a1, %lo(array1_size)(a1)
; ONE-FENCE-NEXT:   sd	a0, 8(sp)
; ONE-FENCE-NEXT:   bgeu	a0, a1, .LBB0_2

; FENCE-OMIT-BR-LABEL:victim_function:
; FENCE-OMIT-BR:        .cfi_startproc
; FENCE-OMIT-BR-NEXT: # %bb.0:
; FENCE-OMIT-BR-NEXT:   addi	sp, sp, -16
; FENCE-OMIT-BR-NEXT:   .cfi_def_cfa_offset 16
; FENCE-OMIT-BR-NEXT:   lui	a1, %hi(array1_size)
; FENCE-OMIT-BR-NEXT:   fence.spec  a1, a1
; FENCE-OMIT-BR-NEXT:   lwu	a1, %lo(array1_size)(a1)
; FENCE-OMIT-BR-NEXT:   sd	a0, 8(sp)
; FENCE-OMIT-BR-NEXT:   bgeu	a0, a1, .LBB0_2

; FENCE-OMIT-BR-SER-LABEL:victim_function:
; FENCE-OMIT-BR-SER:        .cfi_startproc
; FENCE-OMIT-BR-SER-NEXT: # %bb.0:
; FENCE-OMIT-BR-SER-NEXT:   addi	sp, sp, -16
; FENCE-OMIT-BR-SER-NEXT:   .cfi_def_cfa_offset 16
; FENCE-OMIT-BR-SER-NEXT:   lui	a1, %hi(array1_size)
; FENCE-OMIT-BR-SER-NEXT:   fence.ser  a1, a1
; FENCE-OMIT-BR-SER-NEXT:   lwu	a1, %lo(array1_size)(a1)
; FENCE-OMIT-BR-SER-NEXT:   sd	a0, 8(sp)
; FENCE-OMIT-BR-SER-NEXT:   bgeu	a0, a1, .LBB0_2


entry:
  %x.addr = alloca i64, align 8
  store i64 %x, ptr %x.addr, align 8
  %0 = load i64, ptr %x.addr, align 8
  %1 = load i32, ptr @array1_size, align 4
  %conv = zext i32 %1 to i64
  %cmp = icmp ult i64 %0, %conv
  br i1 %cmp, label %if.then, label %if.end

if.then:                                          ; preds = %entry
; FENCE-SPEC:       # %bb.1:
; FENCE-SPEC-NEXT:  	fence.spec	sp, sp
; FENCE-SPEC-NEXT:  	ld	a0, 8(sp)
; FENCE-SPEC-NEXT:  	lui	a1, %hi(array1)
; FENCE-SPEC-NEXT:  	addi	a1, a1, %lo(array1)
; FENCE-SPEC-NEXT:  	add	a0, a1, a0
; FENCE-SPEC-NEXT:  	fence.spec	a0, a0
; FENCE-SPEC-NEXT:  	lbu	a0, 0(a0)
; FENCE-SPEC-NEXT:  	slli	a0, a0, 9
; FENCE-SPEC-NEXT:  	lui	a1, %hi(array2)
; FENCE-SPEC-NEXT:  	addi	a1, a1, %lo(array2)
; FENCE-SPEC-NEXT:  	add	a0, a1, a0
; FENCE-SPEC-NEXT:  	fence.spec	a0, a0
; FENCE-SPEC-NEXT:  	lbu	a0, 0(a0)
; FENCE-SPEC-NEXT:  	lui	a1, %hi(temp)
; FENCE-SPEC-NEXT:  	fence.spec	a1, a1
; FENCE-SPEC-NEXT:  	lbu	a2, %lo(temp)(a1)
; FENCE-SPEC-NEXT:  	and	a0, a2, a0
; FENCE-SPEC-NEXT:  	sb	a0, %lo(temp)(a1)

; FENCE-SPEC-NO-END:       # %bb.1:
; FENCE-SPEC-NO-END-NEXT:  	fence.spec	sp, sp
; FENCE-SPEC-NO-END-NEXT:  	ld	a0, 8(sp)
; FENCE-SPEC-NO-END-NEXT:  	lui	a1, %hi(array1)
; FENCE-SPEC-NO-END-NEXT:  	addi	a1, a1, %lo(array1)
; FENCE-SPEC-NO-END-NEXT:  	add	a0, a1, a0
; FENCE-SPEC-NO-END-NEXT:  	fence.spec	a0, a0
; FENCE-SPEC-NO-END-NEXT:  	lbu	a0, 0(a0)
; FENCE-SPEC-NO-END-NEXT:  	slli	a0, a0, 9
; FENCE-SPEC-NO-END-NEXT:  	lui	a1, %hi(array2)
; FENCE-SPEC-NO-END-NEXT:  	addi	a1, a1, %lo(array2)
; FENCE-SPEC-NO-END-NEXT:  	add	a0, a1, a0
; FENCE-SPEC-NO-END-NEXT:  	fence.spec	a0, a0
; FENCE-SPEC-NO-END-NEXT:  	lbu	a0, 0(a0)
; FENCE-SPEC-NO-END-NEXT:  	lui	a1, %hi(temp)
; FENCE-SPEC-NO-END-NEXT:  	fence.spec	a1, a1
; FENCE-SPEC-NO-END-NEXT:  	lbu	a2, %lo(temp)(a1)
; FENCE-SPEC-NO-END-NEXT:  	and	a0, a2, a0
; FENCE-SPEC-NO-END-NEXT:  	sb	a0, %lo(temp)(a1)

; FENCE-NOP:       # %bb.1:
; FENCE-NOP-NEXT:  	nop
; FENCE-NOP-NEXT:  	ld	a0, 8(sp)
; FENCE-NOP-NEXT:  	lui	a1, %hi(array1)
; FENCE-NOP-NEXT:  	addi	a1, a1, %lo(array1)
; FENCE-NOP-NEXT:  	add	a0, a1, a0
; FENCE-NOP-NEXT:  	nop
; FENCE-NOP-NEXT:  	lbu	a0, 0(a0)
; FENCE-NOP-NEXT:  	slli	a0, a0, 9
; FENCE-NOP-NEXT:  	lui	a1, %hi(array2)
; FENCE-NOP-NEXT:  	addi	a1, a1, %lo(array2)
; FENCE-NOP-NEXT:  	add	a0, a1, a0
; FENCE-NOP-NEXT:  	nop
; FENCE-NOP-NEXT:  	lbu	a0, 0(a0)
; FENCE-NOP-NEXT:  	lui	a1, %hi(temp)
; FENCE-NOP-NEXT:  	nop
; FENCE-NOP-NEXT:  	lbu	a2, %lo(temp)(a1)
; FENCE-NOP-NEXT:  	and	a0, a2, a0
; FENCE-NOP-NEXT:  	sb	a0, %lo(temp)(a1)


; FENCE-OPT:       # %bb.1:
; FENCE-OPT-NEXT:  	fence.spec	sp, sp
; FENCE-OPT-NEXT:  	ld	a0, 8(sp)
; FENCE-OPT-NEXT:  	lui	a1, %hi(array1)
; FENCE-OPT-NEXT:  	addi	a1, a1, %lo(array1)
; FENCE-OPT-NEXT:  	add	a0, a1, a0
; FENCE-OPT-NEXT:  	fence.spec	a0, a0
; FENCE-OPT-NEXT:  	lbu	a0, 0(a0)
; FENCE-OPT-NEXT:  	slli	a0, a0, 9
; FENCE-OPT-NEXT:  	lui	a1, %hi(array2)
; FENCE-OPT-NEXT:  	addi	a1, a1, %lo(array2)
; FENCE-OPT-NEXT:  	add	a0, a1, a0
; FENCE-OPT-NEXT:  	fence.spec	a0, a0
; FENCE-OPT-NEXT:  	lbu	a0, 0(a0)
; FENCE-OPT-NEXT:  	lui	a1, %hi(temp)
; FENCE-OPT-NEXT:  	fence.spec	a1, a1
; FENCE-OPT-NEXT:  	lbu	a2, %lo(temp)(a1)
; FENCE-OPT-NEXT:  	and	a0, a2, a0
; FENCE-OPT-NEXT:  	sb	a0, %lo(temp)(a1)

; FENCE-SPEC-ALL:       # %bb.1:
; FENCE-SPEC-ALL-NEXT:  	fence.spec	zero, zero
; FENCE-SPEC-ALL-NEXT:  	ld	a0, 8(sp)
; FENCE-SPEC-ALL-NEXT:  	lui	a1, %hi(array1)
; FENCE-SPEC-ALL-NEXT:  	addi	a1, a1, %lo(array1)
; FENCE-SPEC-ALL-NEXT:  	add	a0, a1, a0
; FENCE-SPEC-ALL-NEXT:  	fence.spec	zero, zero
; FENCE-SPEC-ALL-NEXT:  	lbu	a0, 0(a0)
; FENCE-SPEC-ALL-NEXT:  	slli	a0, a0, 9
; FENCE-SPEC-ALL-NEXT:  	lui	a1, %hi(array2)
; FENCE-SPEC-ALL-NEXT:  	addi	a1, a1, %lo(array2)
; FENCE-SPEC-ALL-NEXT:  	add	a0, a1, a0
; FENCE-SPEC-ALL-NEXT:  	fence.spec	zero, zero
; FENCE-SPEC-ALL-NEXT:  	lbu	a0, 0(a0)
; FENCE-SPEC-ALL-NEXT:  	lui	a1, %hi(temp)
; FENCE-SPEC-ALL-NEXT:  	fence.spec	zero, zero
; FENCE-SPEC-ALL-NEXT:  	lbu	a2, %lo(temp)(a1)
; FENCE-SPEC-ALL-NEXT:  	and	a0, a2, a0
; FENCE-SPEC-ALL-NEXT:  	sb	a0, %lo(temp)(a1)

; FENCE-SPEC-I:       # %bb.1:
; FENCE-SPEC-I-NEXT:  	fence.i
; FENCE-SPEC-I-NEXT:  	ld	a0, 8(sp)
; FENCE-SPEC-I-NEXT:  	lui	a1, %hi(array1)
; FENCE-SPEC-I-NEXT:  	addi	a1, a1, %lo(array1)
; FENCE-SPEC-I-NEXT:  	add	a0, a1, a0
; FENCE-SPEC-I-NEXT:  	fence.i
; FENCE-SPEC-I-NEXT:  	lbu	a0, 0(a0)
; FENCE-SPEC-I-NEXT:  	slli	a0, a0, 9
; FENCE-SPEC-I-NEXT:  	lui	a1, %hi(array2)
; FENCE-SPEC-I-NEXT:  	addi	a1, a1, %lo(array2)
; FENCE-SPEC-I-NEXT:  	add	a0, a1, a0
; FENCE-SPEC-I-NEXT:  	fence.i
; FENCE-SPEC-I-NEXT:  	lbu	a0, 0(a0)
; FENCE-SPEC-I-NEXT:  	lui	a1, %hi(temp)
; FENCE-SPEC-I-NEXT:  	fence.i
; FENCE-SPEC-I-NEXT:  	lbu	a2, %lo(temp)(a1)
; FENCE-SPEC-I-NEXT:  	and	a0, a2, a0
; FENCE-SPEC-I-NEXT:  	sb	a0, %lo(temp)(a1)

; FENCE-SER-ALL:       # %bb.1:
; FENCE-SER-ALL-NEXT:  	fence.ser	zero, zero
; FENCE-SER-ALL-NEXT:  	ld	a0, 8(sp)
; FENCE-SER-ALL-NEXT:  	lui	a1, %hi(array1)
; FENCE-SER-ALL-NEXT:  	addi	a1, a1, %lo(array1)
; FENCE-SER-ALL-NEXT:  	add	a0, a1, a0
; FENCE-SER-ALL-NEXT:  	fence.ser	zero, zero
; FENCE-SER-ALL-NEXT:  	lbu	a0, 0(a0)
; FENCE-SER-ALL-NEXT:  	slli	a0, a0, 9
; FENCE-SER-ALL-NEXT:  	lui	a1, %hi(array2)
; FENCE-SER-ALL-NEXT:  	addi	a1, a1, %lo(array2)
; FENCE-SER-ALL-NEXT:  	add	a0, a1, a0
; FENCE-SER-ALL-NEXT:  	fence.ser	zero, zero
; FENCE-SER-ALL-NEXT:  	lbu	a0, 0(a0)
; FENCE-SER-ALL-NEXT:  	lui	a1, %hi(temp)
; FENCE-SER-ALL-NEXT:  	fence.ser	zero, zero
; FENCE-SER-ALL-NEXT:  	lbu	a2, %lo(temp)(a1)
; FENCE-SER-ALL-NEXT:  	and	a0, a2, a0
; FENCE-SER-ALL-NEXT:  	sb	a0, %lo(temp)(a1)


; ONE-FENCE:      # %bb.1:
; ONE-FENCE-NEXT:   fence.spec	sp, sp
; ONE-FENCE-NEXT:   ld	a0, 8(sp)
; ONE-FENCE-NEXT:   lui	a1, %hi(array1)
; ONE-FENCE-NEXT:   addi	a1, a1, %lo(array1)
; ONE-FENCE-NEXT:   add	a0, a1, a0
; ONE-FENCE-NEXT:   lbu	a0, 0(a0)
; ONE-FENCE-NEXT:   slli	a0, a0, 9
; ONE-FENCE-NEXT:   lui	a1, %hi(array2)
; ONE-FENCE-NEXT:   addi	a1, a1, %lo(array2)
; ONE-FENCE-NEXT:   add	a0, a1, a0
; ONE-FENCE-NEXT:   lbu	a0, 0(a0)
; ONE-FENCE-NEXT:   lui	a1, %hi(temp)
; ONE-FENCE-NEXT:   lbu	a2, %lo(temp)(a1)
; ONE-FENCE-NEXT:   and	a0, a2, a0
; ONE-FENCE-NEXT:   sb	a0, %lo(temp)(a1)

; FENCE-OMIT-BR:       # %bb.1:
; FENCE-OMIT-BR-NEXT:  	fence.spec	sp, sp
; FENCE-OMIT-BR-NEXT:  	ld	a0, 8(sp)
; FENCE-OMIT-BR-NEXT:  	lui	a1, %hi(array1)
; FENCE-OMIT-BR-NEXT:  	addi	a1, a1, %lo(array1)
; FENCE-OMIT-BR-NEXT:  	add	a0, a1, a0
; FENCE-OMIT-BR-NEXT:  	fence.spec	a0, a0
; FENCE-OMIT-BR-NEXT:  	lbu	a0, 0(a0)
; FENCE-OMIT-BR-NEXT:  	slli	a0, a0, 9
; FENCE-OMIT-BR-NEXT:  	lui	a1, %hi(array2)
; FENCE-OMIT-BR-NEXT:  	addi	a1, a1, %lo(array2)
; FENCE-OMIT-BR-NEXT:  	add	a0, a1, a0
; FENCE-OMIT-BR-NEXT:  	fence.spec	a0, a0
; FENCE-OMIT-BR-NEXT:  	lbu	a0, 0(a0)
; FENCE-OMIT-BR-NEXT:  	lui	a1, %hi(temp)
; FENCE-OMIT-BR-NEXT:  	fence.spec	a1, a1
; FENCE-OMIT-BR-NEXT:  	lbu	a2, %lo(temp)(a1)
; FENCE-OMIT-BR-NEXT:  	and	a0, a2, a0
; FENCE-OMIT-BR-NEXT:  	sb	a0, %lo(temp)(a1)

; FENCE-OMIT-BR-SER:       # %bb.1:
; FENCE-OMIT-BR-SER-NEXT:  	fence.ser	sp, sp
; FENCE-OMIT-BR-SER-NEXT:  	ld	a0, 8(sp)
; FENCE-OMIT-BR-SER-NEXT:  	lui	a1, %hi(array1)
; FENCE-OMIT-BR-SER-NEXT:  	addi	a1, a1, %lo(array1)
; FENCE-OMIT-BR-SER-NEXT:  	add	a0, a1, a0
; FENCE-OMIT-BR-SER-NEXT:  	fence.ser	a0, a0
; FENCE-OMIT-BR-SER-NEXT:  	lbu	a0, 0(a0)
; FENCE-OMIT-BR-SER-NEXT:  	slli	a0, a0, 9
; FENCE-OMIT-BR-SER-NEXT:  	lui	a1, %hi(array2)
; FENCE-OMIT-BR-SER-NEXT:  	addi	a1, a1, %lo(array2)
; FENCE-OMIT-BR-SER-NEXT:  	add	a0, a1, a0
; FENCE-OMIT-BR-SER-NEXT:  	fence.ser	a0, a0
; FENCE-OMIT-BR-SER-NEXT:  	lbu	a0, 0(a0)
; FENCE-OMIT-BR-SER-NEXT:  	lui	a1, %hi(temp)
; FENCE-OMIT-BR-SER-NEXT:  	fence.ser	a1, a1
; FENCE-OMIT-BR-SER-NEXT:  	lbu	a2, %lo(temp)(a1)
; FENCE-OMIT-BR-SER-NEXT:  	and	a0, a2, a0
; FENCE-OMIT-BR-SER-NEXT:  	sb	a0, %lo(temp)(a1)

; FENCE-SPEC-AFTER:     # %bb.1:
; FENCE-SPEC-AFTER-NEXT:  ld	a0, 8(sp)
; FENCE-SPEC-AFTER-NEXT:  fence.spec	zero, a0
; FENCE-SPEC-AFTER-NEXT:  lui	a1, %hi(array1)
; FENCE-SPEC-AFTER-NEXT:  addi	a1, a1, %lo(array1)
; FENCE-SPEC-AFTER-NEXT:  add	a0, a1, a0
; FENCE-SPEC-AFTER-NEXT:  lbu	a0, 0(a0)
; FENCE-SPEC-AFTER-NEXT:  fence.spec	zero, a0
; FENCE-SPEC-AFTER-NEXT:  slli	a0, a0, 9
; FENCE-SPEC-AFTER-NEXT:  lui	a1, %hi(array2)
; FENCE-SPEC-AFTER-NEXT:  addi	a1, a1, %lo(array2)
; FENCE-SPEC-AFTER-NEXT:  add	a0, a1, a0
; FENCE-SPEC-AFTER-NEXT:  lbu	a0, 0(a0)
; FENCE-SPEC-AFTER-NEXT:  fence.spec	zero, a0
; FENCE-SPEC-AFTER-NEXT:  lui	a1, %hi(temp)
; FENCE-SPEC-AFTER-NEXT:  lbu	a2, %lo(temp)(a1)
; FENCE-SPEC-AFTER-NEXT:  fence.spec	zero, a2
; FENCE-SPEC-AFTER-NEXT:  and	a0, a2, a0
; FENCE-SPEC-AFTER-NEXT:	sb	a0, %lo(temp)(a1)


; FENCE-SPEC-AFTER-DIS:     # %bb.1:
; FENCE-SPEC-AFTER-DIS-NEXT:  ld	a0, 8(sp)
; FENCE-SPEC-AFTER-DIS-NEXT:  fence.spec	a0, a0
; FENCE-SPEC-AFTER-DIS-NEXT:  lui	a1, %hi(array1)
; FENCE-SPEC-AFTER-DIS-NEXT:  addi	a1, a1, %lo(array1)
; FENCE-SPEC-AFTER-DIS-NEXT:  add	a0, a1, a0
; FENCE-SPEC-AFTER-DIS-NEXT:  lbu	a0, 0(a0)
; FENCE-SPEC-AFTER-DIS-NEXT:  fence.spec	a0, a0
; FENCE-SPEC-AFTER-DIS-NEXT:  slli	a0, a0, 9
; FENCE-SPEC-AFTER-DIS-NEXT:  lui	a1, %hi(array2)
; FENCE-SPEC-AFTER-DIS-NEXT:  addi	a1, a1, %lo(array2)
; FENCE-SPEC-AFTER-DIS-NEXT:  add	a0, a1, a0
; FENCE-SPEC-AFTER-DIS-NEXT:  lbu	a0, 0(a0)
; FENCE-SPEC-AFTER-DIS-NEXT:  fence.spec	a0, a0
; FENCE-SPEC-AFTER-DIS-NEXT:  lui	a1, %hi(temp)
; FENCE-SPEC-AFTER-DIS-NEXT:  lbu	a2, %lo(temp)(a1)
; FENCE-SPEC-AFTER-DIS-NEXT:  fence.spec	a2, a2
; FENCE-SPEC-AFTER-DIS-NEXT:  and	a0, a2, a0
; FENCE-SPEC-AFTER-DIS-NEXT:	sb	a0, %lo(temp)(a1)

; FENCE-SLH:       # %bb.1:
; FENCE-SLH-NEXT:   fence.spec	sp, sp
; FENCE-SLH-NEXT:   ld	a0, 8(sp)
; FENCE-SLH-NEXT:   lui	a1, %hi(array1)
; FENCE-SLH-NEXT:   addi	a1, a1, %lo(array1)
; FENCE-SLH-NEXT:   add	a0, a1, a0
; FENCE-SLH-NEXT:   lbu	a0, 0(a0)
; FENCE-SLH-NEXT:   slli	a0, a0, 9
; FENCE-SLH-NEXT:   lui	a1, %hi(array2)
; FENCE-SLH-NEXT:   addi	a1, a1, %lo(array2)
; FENCE-SLH-NEXT:   add	a0, a1, a0
; FENCE-SLH-NEXT:   lbu	a0, 0(a0)
; FENCE-SLH-NEXT:   lui	a1, %hi(temp)
; FENCE-SLH-NEXT:   fence.spec	a1, a0
; FENCE-SLH-NEXT:   lbu	a2, %lo(temp)(a1)
; FENCE-SLH-NEXT:   and	a0, a2, a0
; FENCE-SLH-NEXT:   sb	a0, %lo(temp)(a1)

; FENCE-SER-SLH:       # %bb.1:
; FENCE-SER-SLH-NEXT:   fence.ser	sp, a0
; FENCE-SER-SLH-NEXT:   fence.ser	sp, a1
; FENCE-SER-SLH-NEXT:   ld	a0, 8(sp)
; FENCE-SER-SLH-NEXT:   lui	a1, %hi(array1)
; FENCE-SER-SLH-NEXT:   addi	a1, a1, %lo(array1)
; FENCE-SER-SLH-NEXT:   add	a0, a1, a0
; FENCE-SER-SLH-NEXT:   lbu	a0, 0(a0)
; FENCE-SER-SLH-NEXT:   slli	a0, a0, 9
; FENCE-SER-SLH-NEXT:   lui	a1, %hi(array2)
; FENCE-SER-SLH-NEXT:   addi	a1, a1, %lo(array2)
; FENCE-SER-SLH-NEXT:   add	a0, a1, a0
; FENCE-SER-SLH-NEXT:   lbu	a0, 0(a0)
; FENCE-SER-SLH-NEXT:   lui	a1, %hi(temp)
; FENCE-SER-SLH-NEXT:   fence.ser	a1, a0
; FENCE-SER-SLH-NEXT:   lbu	a2, %lo(temp)(a1)
; FENCE-SER-SLH-NEXT:   and	a0, a2, a0
; FENCE-SER-SLH-NEXT:   sb	a0, %lo(temp)(a1)

  %2 = load i64, ptr %x.addr, align 8
  %arrayidx = getelementptr inbounds [160 x i8], ptr @array1, i64 0, i64 %2
  %3 = load i8, ptr %arrayidx, align 1
  %conv2 = zext i8 %3 to i32
  %mul = mul nsw i32 %conv2, 512
  %idxprom = sext i32 %mul to i64
  %arrayidx3 = getelementptr inbounds [131072 x i8], ptr @array2, i64 0, i64 %idxprom
  %4 = load i8, ptr %arrayidx3, align 1
  %conv4 = zext i8 %4 to i32
  %5 = load i8, ptr @temp, align 1
  %conv5 = zext i8 %5 to i32
  %and = and i32 %conv5, %conv4
  %conv6 = trunc i32 %and to i8
  store i8 %conv6, ptr @temp, align 1
  br label %if.end

if.end:                                           ; preds = %if.then, %entry
; FENCE-SPEC:       .LBB0_2:
; FENCE-SPEC-NEXT:  	addi	sp, sp, 16
; FENCE-SPEC-NEXT:  	ret
  ret void
}

define dso_local void @victimm_function(i64 noundef %x) #0 {
entry:

; FENCE-SLH:      # %bb.0:
; FENCE-SLH-NEXT:	  addi	sp, sp, -16
; FENCE-SLH-NEXT:   .cfi_def_cfa_offset 16
; FENCE-SLH-NEXT:   li	a1, 1
; FENCE-SLH-NEXT:   sd	a0, 8(sp)
; FENCE-SLH-NEXT:   bnez	a1, .LBB1_2

; FENCE-SER-SLH:      # %bb.0:
; FENCE-SER-SLH-NEXT:	addi	sp, sp, -16
; FENCE-SER-SLH-NEXT:	.cfi_def_cfa_offset 16
; FENCE-SER-SLH-NEXT:	li	a1, 1
; FENCE-SER-SLH-NEXT:	sd	a0, 8(sp)
; FENCE-SER-SLH-NEXT:	bnez	a1, .LBB1_2
  %x.addr = alloca i64, align 8
  store i64 %x, ptr %x.addr, align 8
  %0 = load i64, ptr %x.addr, align 8
  %cmp = icmp ult i64 %0, 0
  br i1 %cmp, label %if.then, label %if.end

if.then:                                          ; preds = %entry

; FENCE-SLH:      # %bb.1:
; FENCE-SLH-NEXT:   fence.spec	sp, sp
; FENCE-SLH-NEXT:   ld	a0, 8(sp)
; FENCE-SLH-NEXT:   lui	a1, %hi(array1)
; FENCE-SLH-NEXT:   addi	a1, a1, %lo(array1)
; FENCE-SLH-NEXT:   add	a0, a1, a0
; FENCE-SLH-NEXT:   lbu	a0, 0(a0)
; FENCE-SLH-NEXT:   slli	a0, a0, 9
; FENCE-SLH-NEXT:   lui	a1, %hi(array2)
; FENCE-SLH-NEXT:   addi	a1, a1, %lo(array2)
; FENCE-SLH-NEXT:   add	a0, a1, a0
; FENCE-SLH-NEXT:   lbu	a0, 0(a0)
; FENCE-SLH-NEXT:   lui	a1, %hi(temp)
; FENCE-SLH-NEXT:   fence.spec	a1, a0
; FENCE-SLH-NEXT:   lbu	a2, %lo(temp)(a1)
; FENCE-SLH-NEXT:   and	a0, a2, a0
; FENCE-SLH-NEXT:   sb	a0, %lo(temp)(a1)

; FENCE-SER-SLH:      # %bb.1:
; FENCE-SER-SLH-NEXT:   fence.ser	sp, a1
; FENCE-SER-SLH-NEXT:   ld	a0, 8(sp)
; FENCE-SER-SLH-NEXT:   lui	a1, %hi(array1)
; FENCE-SER-SLH-NEXT:   addi	a1, a1, %lo(array1)
; FENCE-SER-SLH-NEXT:   add	a0, a1, a0
; FENCE-SER-SLH-NEXT:   lbu	a0, 0(a0)
; FENCE-SER-SLH-NEXT:   slli	a0, a0, 9
; FENCE-SER-SLH-NEXT:   lui	a1, %hi(array2)
; FENCE-SER-SLH-NEXT:   addi	a1, a1, %lo(array2)
; FENCE-SER-SLH-NEXT:   add	a0, a1, a0
; FENCE-SER-SLH-NEXT:   lbu	a0, 0(a0)
; FENCE-SER-SLH-NEXT:   lui	a1, %hi(temp)
; FENCE-SER-SLH-NEXT:   fence.ser	a1, a0
; FENCE-SER-SLH-NEXT:   lbu	a2, %lo(temp)(a1)
; FENCE-SER-SLH-NEXT:   and	a0, a2, a0
; FENCE-SER-SLH-NEXT:   sb	a0, %lo(temp)(a1)
  %1 = load i64, ptr %x.addr, align 8
  %arrayidx = getelementptr inbounds [160 x i8], ptr @array1, i64 0, i64 %1
  %2 = load i8, ptr %arrayidx, align 1
  %conv = zext i8 %2 to i32
  %mul = mul nsw i32 %conv, 512
  %idxprom = sext i32 %mul to i64
  %arrayidx1 = getelementptr inbounds [131072 x i8], ptr @array2, i64 0, i64 %idxprom
  %3 = load i8, ptr %arrayidx1, align 1
  %conv2 = zext i8 %3 to i32
  %4 = load i8, ptr @temp, align 1
  %conv3 = zext i8 %4 to i32
  %and = and i32 %conv3, %conv2
  %conv4 = trunc i32 %and to i8
  store i8 %conv4, ptr @temp, align 1
  br label %if.end

if.end:                                           ; preds = %if.then, %entry
  ret void
}
