; NOTE: Assertions have been autogenerated by utils/update_llc_test_checks.py

; RUN: llc -mtriple=riscv64 %s -o - | FileCheck %s --check-prefix=NONE
; RUN: llc -mtriple=riscv64 -riscv-speculative-load-hardening %s -o - | FileCheck %s --check-prefix=SLH
; RUN: llc -mtriple=riscv64 -riscv-speculative-load-hardening -riscv-slh-fence %s -o - | FileCheck %s --check-prefix=SLH-FENCE
; RUN: llc -mtriple=riscv64 -riscv-speculative-load-hardening -riscv-slh-fence-cond -riscv-slh-ip %s -o - | FileCheck %s --check-prefix=SLH-FENCE-COND-IP

; RUN: llc -mtriple=riscv64 -riscv-speculative-load-hardening -riscv-slh-fence-cond %s -o - | FileCheck %s --check-prefix=SLH-FENCE-COND

@array1_size = dso_local global i32 16, align 4
@array1 = dso_local global <{ [16 x i8], [144 x i8] }> <{ [16 x i8] c"\01\02\03\04\05\06\07\08\09\0A\0B\0C\0D\0E\0F\10", [144 x i8] zeroinitializer }>, align 1
@temp = dso_local global i8 0, align 1
@array2 = dso_local global [131072 x i8] zeroinitializer, align 1

define dso_local void @victim_function(i64 noundef %x) {
; SLH-LABEL: victim_function:
; SLH:       # %bb.0:
;
; SLH-NEXT:   addi	sp, sp, -16
; SLH-NEXT:   .cfi_def_cfa_offset 16
; SLH-NEXT:   li	a1, 0
; SLH-NEXT:   lui	a2, %hi(array1_size)
; SLH-NEXT:   or	a2, zero, a2
; SLH-NEXT:   lwu	a2, %lo(array1_size)(a2)
; SLH-NEXT:   sd	a0, 8(sp)
; SLH-NEXT:   bgeu	a0, a2, .LBB0_2

; SLH-FENCE-COND-IP-LABEL: victim_function:
; SLH-FENCE-COND-IP:       # %bb.0:

; SLH-FENCE-COND-IP-NEXT:   addi	sp, sp, -16
; SLH-FENCE-COND-IP-NEXT:   .cfi_def_cfa_offset 16
; SLH-FENCE-COND-IP-NEXT:   mv	a1, sp
; SLH-FENCE-COND-IP-NEXT:   srai	a1, a1, 63
; SLH-FENCE-COND-IP-NEXT:   fence.cond	zero, a1
; SLH-FENCE-COND-IP-NEXT:   lui	a2, %hi(array1_size)
; SLH-FENCE-COND-IP-NEXT:   lwu	a2, %lo(array1_size)(a2)
; SLH-FENCE-COND-IP-NEXT:   sd	a0, 8(sp)
; SLH-FENCE-COND-IP-NEXT:   bgeu	a0, a2, .LBB0_2

; NONE-LABEL: victim_function:
; NONE:       # %bb.0:
;
; NONE-NEXT:   addi	sp, sp, -16
; NONE-NEXT:   .cfi_def_cfa_offset 16
; NONE-NEXT:   lui	a1, %hi(array1_size)
; NONE-NEXT:   lwu	a1, %lo(array1_size)(a1)
; NONE-NEXT:   sd	a0, 8(sp)
; NONE-NEXT:   bgeu	a0, a1, .LBB0_2

entry:
  %x.addr = alloca i64, align 8
  store i64 %x, ptr %x.addr, align 8
  %0 = load i64, ptr %x.addr, align 8
  %1 = load i32, ptr @array1_size, align 4
  %conv = zext i32 %1 to i64
  %cmp = icmp ult i64 %0, %conv
  br i1 %cmp, label %if.then, label %if.end

if.then:                                          ; preds = %entry
; SLH:       # %bb.1:
; SLH-NEXT:		sltu	a0, a0, a2
; SLH-NEXT:		addiw	a0, a0, -1
; SLH-NEXT:		ld	a2, 8(sp)
; SLH-NEXT:		or	a0, a1, a0
; SLH-NEXT:		lui	a1, %hi(array1)
; SLH-NEXT:		addi	a1, a1, %lo(array1)
; SLH-NEXT:		add	a1, a1, a2
; SLH-NEXT:		or	a1, a0, a1
; SLH-NEXT:		lbu	a1, 0(a1)
; SLH-NEXT:		slli	a1, a1, 9
; SLH-NEXT:		lui	a2, %hi(array2)
; SLH-NEXT:		addi	a2, a2, %lo(array2)
; SLH-NEXT:		add	a1, a2, a1
; SLH-NEXT:		lbu	a1, 0(a1)
; SLH-NEXT:		lui	a2, %hi(temp)
; SLH-NEXT:		or	a0, a0, a2
; SLH-NEXT:		lbu	a0, %lo(temp)(a0)
; SLH-NEXT:		and	a0, a0, a1
; SLH-NEXT:		sb	a0, %lo(temp)(a2)
; SLH-NEXT:		addi	sp, sp, 16
; SLH-NEXT:		ret

; NONE:       # %bb.1:
; NONE-NEXT;  ld	a0, 8(sp)
; NONE-NEXT;  lui	a1, %hi(array1)
; NONE-NEXT;  addi	a1, a1, %lo(array1)
; NONE-NEXT;  add	a0, a1, a0
; NONE-NEXT;  lbu	a0, 0(a0)
; NONE-NEXT;  slli	a0, a0, 9
; NONE-NEXT;  lui	a1, %hi(array2)
; NONE-NEXT;  addi	a1, a1, %lo(array2)
; NONE-NEXT;  add	a0, a1, a0
; NONE-NEXT;  lbu	a0, 0(a0)
; NONE-NEXT;  lui	a1, %hi(temp)
; NONE-NEXT;  lbu	a2, %lo(temp)(a1)
; NONE-NEXT;  and	a0, a2, a0
; NONE-NEXT;  sb	a0, %lo(temp)(a1)

; SLH-FENCE-COND-IP:     # %bb.1:
; SLH-FENCE-COND-IP-NEXT:   fence.cond	zero, a1
; SLH-FENCE-COND-IP-NEXT:   ld	a3, 8(sp)
; SLH-FENCE-COND-IP-NEXT:   lui	a4, %hi(array1)
; SLH-FENCE-COND-IP-NEXT:   addi	a4, a4, %lo(array1)
; SLH-FENCE-COND-IP-NEXT:   add	a3, a4, a3
; SLH-FENCE-COND-IP-NEXT:   lbu	a3, 0(a3)
; SLH-FENCE-COND-IP-NEXT:   slli	a3, a3, 9
; SLH-FENCE-COND-IP-NEXT:   lui	a4, %hi(array2)
; SLH-FENCE-COND-IP-NEXT:   addi	a4, a4, %lo(array2)
; SLH-FENCE-COND-IP-NEXT:   add	a3, a4, a3
; SLH-FENCE-COND-IP-NEXT:   lbu	a3, 0(a3)
; SLH-FENCE-COND-IP-NEXT:   lui	a4, %hi(temp)
; SLH-FENCE-COND-IP-NEXT:   lbu	a5, %lo(temp)(a4)
; SLH-FENCE-COND-IP-NEXT:   sltu	a0, a0, a2
; SLH-FENCE-COND-IP-NEXT:   addiw	a0, a0, -1
; SLH-FENCE-COND-IP-NEXT:   or	a0, a1, a0
; SLH-FENCE-COND-IP-NEXT:   and	a3, a5, a3
; SLH-FENCE-COND-IP-NEXT:   sb	a3, %lo(temp)(a4)
; SLH-FENCE-COND-IP-NEXT:   j	.LBB0_3

; SLH-FENCE-COND:     # %bb.1:
; SLH-FENCE-COND-NEXT:   fence.cond	zero, a1
; SLH-FENCE-COND-NEXT:   ld	a3, 8(sp)
; SLH-FENCE-COND-NEXT:   lui	a4, %hi(array1)
; SLH-FENCE-COND-NEXT:   addi	a4, a4, %lo(array1)
; SLH-FENCE-COND-NEXT:   add	a3, a4, a3
; SLH-FENCE-COND-NEXT:   lbu	a3, 0(a3)
; SLH-FENCE-COND-NEXT:   slli	a3, a3, 9
; SLH-FENCE-COND-NEXT:   lui	a4, %hi(array2)
; SLH-FENCE-COND-NEXT:   addi	a4, a4, %lo(array2)
; SLH-FENCE-COND-NEXT:   add	a3, a4, a3
; SLH-FENCE-COND-NEXT:   lbu	a3, 0(a3)
; SLH-FENCE-COND-NEXT:   lui	a4, %hi(temp)
; SLH-FENCE-COND-NEXT:   lbu	a5, %lo(temp)(a4)
; SLH-FENCE-COND-NEXT:   sltu	a0, a0, a2
; SLH-FENCE-COND-NEXT:   addiw	a0, a0, -1
; SLH-FENCE-COND-NEXT:   or	a0, a1, a0
; SLH-FENCE-COND-NEXT:   and	a3, a5, a3
; SLH-FENCE-COND-NEXT:   sb	a3, %lo(temp)(a4)
; SLH-FENCE-COND-NEXT:   addi	sp, sp, 16
; SLH-FENCE-COND-NEXT:   ret

; SLH-FENCE:      # %bb.1:
; SLH-FENCE-NEXT:	fence.i

  %2 = load i64, ptr %x.addr, align 8
  %arrayidx = getelementptr inbounds [160 x i8], ptr @array1, i64 0, i64 %2
  %3 = load i8, ptr %arrayidx, align 1
  %conv2 = zext i8 %3 to i32
  %mul = mul nsw i32 %conv2, 512
  %idxprom = sext i32 %mul to i64
  %arrayidx3 = getelementptr inbounds [131072 x i8], ptr @array2, i64 0, i64 %idxprom
  %4 = load i8, ptr %arrayidx3, align 1
  %conv4 = zext i8 %4 to i32
  %5 = load i8, ptr @temp, align 1
  %conv5 = zext i8 %5 to i32
  %and = and i32 %conv5, %conv4
  %conv6 = trunc i32 %and to i8
  store i8 %conv6, ptr @temp, align 1
  br label %if.end

if.end:                                           ; preds = %if.then, %entry
; NONE:       .LBB0_2:
; NONE-NEXT:  	addi	sp, sp, 16
; NONE-NEXT:  	ret

; SLH:       .LBB0_2:
; SLH-NEXT:   sltu	a0, a0, a2
; SLH-NEXT:   negw	a0, a0
; SLH-NEXT:   or	a0, a1, a0
; SLH-NEXT:   addi	sp, sp, 16
; SLH-NEXT:   ret


; SLH-FENCE:       .LBB0_2:
;
; SLH-FENCE-NEXT:  fence.i

  ret void
}

